title,author,genre,sentiment,emotionality,suffering,tragicness
Lives_Numa,Plutarch,Biographiebuch,0.38,0.34,0.29,-0.03
Lives_Theseus,Plutarch,Biographiebuch,0.38,0.39,0.33,-0.01
Lives_Lycurgus,Plutarch,Biographiebuch,0.33,0.4,0.34,0.02
Lives_Aemilius Paulus,Plutarch,Biographiebuch,0.28,0.55,0.43,0.1
Lives_Romulus,Plutarch,Biographiebuch,0.2,0.46,0.42,0.12
Lives_Solon,Plutarch,Biographiebuch,0.13,0.42,0.36,0.13
Lives_Sertorius,Plutarch,Biographiebuch,0.25,0.61,0.5,0.15
Lives_Titus Flamininus,Plutarch,Biographiebuch,0.23,0.59,0.49,0.15
Lives_Marcus Cato,Plutarch,Biographiebuch,0.15,0.51,0.44,0.16
Lives_Timoleon,Plutarch,Biographiebuch,0.24,0.61,0.51,0.16
Lives_Aristides,Plutarch,Biographiebuch,0.14,0.5,0.45,0.17
Lives_Themistocles,Plutarch,Biographiebuch,0.16,0.52,0.48,0.17
Lives_Pericles,Plutarch,Biographiebuch,0.11,0.49,0.42,0.17
Lives_Cimon,Plutarch,Biographiebuch,0.18,0.56,0.52,0.18
Lives_Publicola,Plutarch,Biographiebuch,0.16,0.58,0.49,0.19
Lives_Demetrius,Plutarch,Biographiebuch,0.16,0.62,0.51,0.2
Lives_Marcellus,Plutarch,Biographiebuch,0.16,0.62,0.55,0.21
Lives_Camillus,Plutarch,Biographiebuch,0.13,0.59,0.53,0.22
Lives_Alexander,Plutarch,Biographiebuch,0.1,0.58,0.49,0.22
Lives_Philopoemen,Plutarch,Biographiebuch,0.11,0.6,0.54,0.23
Lives_Cato the Younger,Plutarch,Biographiebuch,0.09,0.58,0.53,0.24
Lives_Brutus,Plutarch,Biographiebuch,0.12,0.64,0.55,0.24
Lives_Aratus,Plutarch,Biographiebuch,0.1,0.61,0.54,0.24
Lives_Pelopidas,Plutarch,Biographiebuch,0.14,0.66,0.59,0.24
Lives_Sulla,Plutarch,Biographiebuch,0.12,0.64,0.57,0.24
Lives_Agesilaus,Plutarch,Biographiebuch,0.14,0.67,0.6,0.25
Lives_Lucullus,Plutarch,Biographiebuch,0.04,0.58,0.5,0.25
Lives_Antony,Plutarch,Biographiebuch,0.08,0.62,0.54,0.25
Lives_Pyrrhus,Plutarch,Biographiebuch,0.09,0.62,0.56,0.25
Lives_Caius Marcius Coriolanus,Plutarch,Biographiebuch,0.13,0.69,0.59,0.25
Lives_Lysander,Plutarch,Biographiebuch,0.01,0.54,0.5,0.25
Lives_Eumenes,Plutarch,Biographiebuch,0.06,0.62,0.55,0.27
Lives_Pompey,Plutarch,Biographiebuch,0.06,0.65,0.55,0.27
Lives_Caius Marius,Plutarch,Biographiebuch,0.06,0.63,0.57,0.27
Lives_Fabius Maximus,Plutarch,Biographiebuch,0.02,0.61,0.52,0.27
Lives_Dion,Plutarch,Biographiebuch,0.09,0.67,0.6,0.28
Lives_Otho,Plutarch,Biographiebuch,0.04,0.63,0.57,0.28
Lives_Cleomenes,Plutarch,Biographiebuch,0.03,0.62,0.55,0.28
Lives_Cicero,Plutarch,Biographiebuch,-0.01,0.58,0.52,0.28
Lives_Alcibiades,Plutarch,Biographiebuch,-0.01,0.58,0.52,0.28
Lives_Demosthenes,Plutarch,Biographiebuch,-0.07,0.54,0.45,0.28
Lives_Nicias,Plutarch,Biographiebuch,-0.0,0.6,0.53,0.29
Lives_Agis,Plutarch,Biographiebuch,0.03,0.62,0.59,0.29
Lives_Crassus,Plutarch,Biographiebuch,0.01,0.63,0.55,0.29
Lives_Caius Gracchus,Plutarch,Biographiebuch,-0.03,0.6,0.53,0.3
Lives_Caesar,Plutarch,Biographiebuch,0.03,0.71,0.62,0.32
Lives_Galba,Plutarch,Biographiebuch,-0.06,0.62,0.56,0.32
Lives_Artaxerxes,Plutarch,Biographiebuch,-0.06,0.68,0.59,0.35
Lives_Phocion,Plutarch,Biographiebuch,-0.04,0.71,0.65,0.36
Lives_Tiberius Gracchus,Plutarch,Biographiebuch,-0.12,0.66,0.61,0.38
