title,author,genre,sentiment,emotionality,suffering,tragicness
The Histories,Herodotus,Geschichtswerke,-0.2,0.4,0.36,0.29
Suppliant Women,Aeschylus,Tragödien,-0.08,0.56,0.45,0.29
Anabasis of Alexander,Arrian,Geschichtswerke,-0.17,0.44,0.4,0.3
Histories,Polybius,Geschichtswerke,-0.15,0.49,0.44,0.31
Antiquities of the Jews,Flavius Josephus,Geschichtswerke,-0.09,0.57,0.49,0.31
Anabasis,Xenophon,Geschichtswerke,-0.19,0.45,0.41,0.31
Bacchae,Euripides,Tragödien,-0.12,0.62,0.43,0.32
Library,Diodorus Siculus,Geschichtswerke,-0.14,0.56,0.5,0.33
Hellenica,Xenophon,Geschichtswerke,-0.24,0.46,0.43,0.34
Roman Antiquities,Dionysios of Halikarnassos,Geschichtswerke,-0.19,0.55,0.5,0.36
The Peloponnesian War,Thucydides,Geschichtswerke,-0.27,0.46,0.44,0.36
Eumenides,Aeschylus,Tragödien,-0.17,0.63,0.54,0.38
Rhesus,Euripides,Tragödien,-0.24,0.67,0.47,0.41
Oedipus at Colonus,Sophocles,Tragödien,-0.25,0.65,0.48,0.41
Iphigenia in Aulis,Euripides,Tragödien,-0.22,0.71,0.5,0.41
Libation Bearers,Aeschylus,Tragödien,-0.28,0.7,0.52,0.44
Philoctetes,Sophocles,Tragödien,-0.31,0.66,0.49,0.44
Agamemnon,Aeschylus,Tragödien,-0.28,0.72,0.54,0.45
Trachiniae,Sophocles,Tragödien,-0.33,0.67,0.51,0.46
Roman History,Appian,Geschichtswerke,-0.35,0.6,0.56,0.47
Electra,Sophocles,Tragödien,-0.32,0.7,0.53,0.47
Oedipus Tyrannus,Sophocles,Tragödien,-0.4,0.63,0.48,0.48
The Wars of the Jews,Flavius Josephus,Geschichtswerke,-0.33,0.66,0.61,0.48
Seven Against,Aeschylus,Tragödien,-0.32,0.74,0.65,0.51
Antigone,Sophocles,Tragödien,-0.4,0.67,0.57,0.51
Prometheus Bound,Aeschylus,Tragödien,-0.4,0.69,0.57,0.52
Persians,Aeschylus,Tragödien,-0.41,0.69,0.58,0.52
Ajax,Sophocles,Tragödien,-0.44,0.72,0.58,0.54
The Trojan Women,Euripides,Tragödien,-0.44,0.8,0.57,0.56
