emotion,model,precision,recall,f1,instances
happy,j-hartmann-emotion-english-roberta-large,0.91,0.74,0.82,445
sad,facebook-bart-large-mnli,0.93,0.66,0.77,264
sad,j-hartmann-emotion-english-roberta-large,0.85,0.69,0.76,264
sad,roberta-large-mnli,0.91,0.64,0.75,264
happy,facebook-bart-large-mnli,0.97,0.61,0.75,445
happy,roberta-large-mnli,0.96,0.59,0.73,445
fearful,facebook-bart-large-mnli,0.79,0.69,0.73,166
angry,facebook-bart-large-mnli,0.87,0.56,0.68,146
fearful,roberta-large-mnli,0.7,0.66,0.68,166
angry,roberta-large-mnli,0.64,0.73,0.68,146
fearful,j-hartmann-emotion-english-roberta-large,0.61,0.73,0.67,166
angry,j-hartmann-emotion-english-roberta-large,0.61,0.71,0.65,146
neutral,j-hartmann-emotion-english-roberta-large,0.52,0.62,0.57,194
surprised,j-hartmann-emotion-english-roberta-large,0.65,0.49,0.56,110
disgusted,facebook-bart-large-mnli,0.32,0.31,0.32,35
surprised,roberta-large-mnli,0.18,0.89,0.29,110
surprised,facebook-bart-large-mnli,0.17,0.95,0.29,110
disgusted,j-hartmann-emotion-english-roberta-large,0.14,0.37,0.2,35
disgusted,roberta-large-mnli,0.25,0.11,0.16,35
neutral,roberta-large-mnli,0.75,0.02,0.03,194
neutral,facebook-bart-large-mnli,0.67,0.01,0.02,194
