genre,sentiment,anger,disgust,fear,joy,sadness,surprise,neutral
Rhetorik,-0.54,0.32,0.09,0.06,0.02,0.02,0.03,0.46
Geschichtswerke,-0.44,0.24,0.06,0.15,0.03,0.03,0.01,0.49
Tragödien,-0.34,0.25,0.07,0.1,0.07,0.1,0.08,0.32
Geographie,-0.32,0.08,0.08,0.06,0.03,0.02,0.01,0.72
Komödie,-0.23,0.23,0.07,0.04,0.08,0.04,0.13,0.4
Biographie,-0.2,0.16,0.08,0.09,0.05,0.03,0.02,0.58
Epik,-0.2,0.24,0.09,0.13,0.1,0.05,0.01,0.39
Philosophie,-0.18,0.11,0.08,0.03,0.04,0.01,0.02,0.71
